Data Analysis for V&M (2017) • vmapp2017
…
data(illusion)
illusion <- illusion %>% 
    group_by(exp, id, condition, cond, interval) %>% 
    summarise(k = sum(response, na.rm=T),
              n = n(),
              exclude = unique(exclude)) %>% 
    ungroup()

Experiment 1

Apparent Motion

( exp1 <- filter(illusion, exp == 1) )

## # A tibble: 384 × 8
##      exp    id   condition  cond interval     k     n exclude
##    <chr> <dbl>       <chr> <dbl>    <dbl> <dbl> <int>   <lgl>
## 1      1   101 involuntary     0       33     9    20   FALSE
## 2      1   101 involuntary     0       50     8    20   FALSE
## 3      1   101 involuntary     0       83     8    20   FALSE
## 4      1   101 involuntary     0      100     6    20   FALSE
## 5      1   101 involuntary     0      133     6    20   FALSE
## 6      1   101 involuntary     0      150     5    20   FALSE
## 7      1   101 involuntary     0      200     4    20   FALSE
## 8      1   101 involuntary     0      300     4    20   FALSE
## 9      1   101   voluntary     1       33    10    20   FALSE
## 10     1   101   voluntary     1       50    10    20   FALSE
## # ... with 374 more rows
…
Interval Estimation

data(ie)
ie$isic <- ( ie$interval - mean(unique(ie$interval)) ) / 10
ie

## # A tibble: 3,011 × 6
##       id condition interval estimate  cond  isic
##    <dbl>     <chr>    <int>    <dbl> <dbl> <dbl>
## 1    101 voluntary      350      500     1    15
## 2    101 voluntary      250      500     1     5
## 3    101 voluntary      150      400     1    -5
## 4    101 voluntary      150      450     1    -5
## 5    101 voluntary      350      500     1    15
## 6    101 voluntary      250      500     1     5
## 7    101 voluntary      250      450     1     5
## 8    101 voluntary      350      450     1    15
## 9    101 voluntary       50      350     1   -15
## 10   101 voluntary       50      350     1   -15
## # ... with 3,001 more rows
…
Experiment 2

( exp2 <- filter(illusion, exp == 2) )

## # A tibble: 720 × 8
##      exp    id   condition  cond interval     k     n exclude
##    <chr> <dbl>       <chr> <dbl>    <dbl> <dbl> <int>   <lgl>
## 1      2   202 involuntary     0        0    17    24   FALSE
## 2      2   202 involuntary     0       13    20    24   FALSE
## 3      2   202 involuntary     0       27    16    24   FALSE
## 4      2   202 involuntary     0       40    19    24   FALSE
## 5      2   202 involuntary     0       53    19    24   FALSE
## 6      2   202 involuntary     0       67    16    24   FALSE
## 7      2   202 involuntary     0       80    13    24   FALSE
## 8      2   202 involuntary     0       93    10    24   FALSE
## 9      2   202 involuntary     0      107    18    24   FALSE
## 10     2   202 involuntary     0      120     7    24   FALSE
## # ... with 710 more rows
…
Experiment 3

( exp3 <- filter(illusion, exp == 3) )

## # A tibble: 760 × 8
##      exp    id   condition  cond interval     k     n exclude
##    <chr> <dbl>       <chr> <dbl>    <dbl> <dbl> <int>   <lgl>
## 1      3   302 involuntary     0        0    23    24   FALSE
## 2      3   302 involuntary     0       13    24    24   FALSE
## 3      3   302 involuntary     0       27    24    24   FALSE
## 4      3   302 involuntary     0       40    13    24   FALSE
## 5      3   302 involuntary     0       53    13    24   FALSE
## 6      3   302 involuntary     0       67    12    24   FALSE
## 7      3   302 involuntary     0       80     4    24   FALSE
## 8      3   302 involuntary     0       93     4    24   FALSE
## 9      3   302 involuntary     0      107     2    24   FALSE
## 10     3   302 involuntary     0      120     0    24   FALSE
## # ... with 750 more rows
…
Experiment 4

( exp4 <- filter(illusion, exp == 4) )

## # A tibble: 720 × 8
##      exp    id  condition  cond interval     k     n exclude
##    <chr> <dbl>      <chr> <dbl>    <dbl> <dbl> <int>   <lgl>
## 1      4   403 no_warning     0        0    21    24   FALSE
## 2      4   403 no_warning     0       13    21    24   FALSE
## 3      4   403 no_warning     0       27    16    24   FALSE
## 4      4   403 no_warning     0       40    13    24   FALSE
## 5      4   403 no_warning     0       53    17    24   FALSE
## 6      4   403 no_warning     0       67     8    24   FALSE
## 7      4   403 no_warning     0       80    12    24   FALSE
## 8      4   403 no_warning     0       93     7    24   FALSE
## 9      4   403 no_warning     0      107     5    24   FALSE
## 10     4   403 no_warning     0      120     1    24   FALSE
## # ... with 710 more rows
…
Combined analysis

We also compared the effect of condition across the Ternus experiments using an interaction term. That is, is the effect of condition greater in experiments 2 and 3, than in experiment 4?

( fulldata <- illusion %>% filter(exp > 1, !exclude) )

## # A tibble: 2,060 × 8
##      exp    id   condition  cond interval     k     n exclude
##    <chr> <dbl>       <chr> <dbl>    <dbl> <dbl> <int>   <lgl>
## 1      2   202 involuntary     0        0    17    24   FALSE
## 2      2   202 involuntary     0       13    20    24   FALSE
## 3      2   202 involuntary     0       27    16    24   FALSE
## 4      2   202 involuntary     0       40    19    24   FALSE
## 5      2   202 involuntary     0       53    19    24   FALSE
## 6      2   202 involuntary     0       67    16    24   FALSE
## 7      2   202 involuntary     0       80    13    24   FALSE
## 8      2   202 involuntary     0       93    10    24   FALSE
## 9      2   202 involuntary     0      107    18    24   FALSE
## 10     2   202 involuntary     0      120     7    24   FALSE
## # ... with 2,050 more rows
…
